{
    "contactUsTitle": "send a message",
    "incorretPassword": "Authentication failed.",
    "recoveryPasswordTitle": "Forgot your password?",
    "incorrectEmailRecovery": "Invalid email address."
}